module protobuf

go 1.16

require (
	github.com/golang/protobuf v1.4.3
	github.com/vmihailenco/msgpack v4.0.4+incompatible
	google.golang.org/appengine v1.6.7 // indirect
	gopkg.in/check.v1 v1.0.0-20201130134442-10cb98267c6c // indirect
)
