module crudapp

go 1.14

require (
	github.com/go-sql-driver/mysql v1.4.1
	github.com/golang/mock v1.3.1
	github.com/gorilla/mux v1.7.3
	github.com/gorilla/schema v1.1.0
	go.uber.org/zap v1.12.0
	gopkg.in/DATA-DOG/go-sqlmock.v1 v1.3.0
)
